/home/martyna/IdeaProjects/telegramBot/src/main/java/BeznazwyBot.java
/home/martyna/IdeaProjects/telegramBot/src/main/java/BeznazwyBot2.java
/home/martyna/IdeaProjects/telegramBot/src/main/java/Main.java
